\relax 
\@writefile{toc}{\contentsline {section}{\numberline {1}イントロダクション}{1}}
\@writefile{toc}{\contentsline {section}{\numberline {2}フィルタリングとは}{1}}
\@writefile{toc}{\contentsline {section}{\numberline {3}エッジ強調}{2}}
\@writefile{toc}{\contentsline {subsection}{\numberline {3.1}エッジ強調とは}{2}}
\@writefile{toc}{\contentsline {subsection}{\numberline {3.2}実験内容}{2}}
\@writefile{lot}{\contentsline {table}{\numberline {1}{\ignorespaces サンプル画像}}{2}}
\@writefile{toc}{\contentsline {subsection}{\numberline {3.3}Sobelフィルタ}{2}}
\@writefile{toc}{\contentsline {subsubsection}{\numberline {3.3.1}説明}{2}}
\@writefile{lot}{\contentsline {table}{\numberline {2}{\ignorespaces Sobelフィルタ}}{3}}
\@writefile{toc}{\contentsline {subsection}{\numberline {3.4}実験結果}{3}}
\@writefile{lot}{\contentsline {table}{\numberline {3}{\ignorespaces Sobelフィルタ結果}}{3}}
\@writefile{toc}{\contentsline {subsection}{\numberline {3.5}8近傍ラプラシアンフィルタ}{3}}
\@writefile{toc}{\contentsline {subsection}{\numberline {3.6}説明}{3}}
\@writefile{lof}{\contentsline {figure}{\numberline {1}{\ignorespaces 8近傍ラプラシアンフィルタ}}{3}}
\@writefile{toc}{\contentsline {subsection}{\numberline {3.7}実験結果}{4}}
\@writefile{lot}{\contentsline {table}{\numberline {4}{\ignorespaces ８近傍ラプラシアンフィルタ結果}}{4}}
\@writefile{toc}{\contentsline {section}{\numberline {4}２値化}{4}}
\@writefile{toc}{\contentsline {subsection}{\numberline {4.1}説明}{4}}
\@writefile{toc}{\contentsline {subsection}{\numberline {4.2}結果}{5}}
\@writefile{lot}{\contentsline {table}{\numberline {5}{\ignorespaces 元画像から２値化}}{5}}
\@writefile{lot}{\contentsline {table}{\numberline {6}{\ignorespaces Sobelフィルタ適用後、２値化}}{5}}
\@writefile{lot}{\contentsline {table}{\numberline {7}{\ignorespaces 8近傍ラプラシアンフィルタ適用後、２値化}}{5}}
\@writefile{toc}{\contentsline {section}{\numberline {5}２値化したエッジ画像の応用例}{6}}
\@writefile{toc}{\contentsline {subsection}{\numberline {5.1}物体の形状の認識を行う手法}{6}}
\@writefile{toc}{\contentsline {subsection}{\numberline {5.2}ハフ変換とは}{6}}
\@writefile{toc}{\contentsline {subsection}{\numberline {5.3}ハフ変換におけるエッジ強調、２値化の重要性}{6}}
\@writefile{toc}{\contentsline {subsection}{\numberline {5.4}応用例}{7}}
\@writefile{toc}{\contentsline {section}{\numberline {6}プログラム作成時に工夫した点}{7}}
\@writefile{toc}{\contentsline {subsection}{\numberline {6.1}エッジ強調}{7}}
\@writefile{toc}{\contentsline {subsection}{\numberline {6.2}２値化}{7}}
\@writefile{toc}{\contentsline {section}{\numberline {7}おわりに}{7}}
